1213 DPS00001.JPG
1189 DPS00002.JPG
1191 DPS00003.JPG
1189 DPS00004.JPG
1075 DPS00005.JPG
940 DPS00006.JPG
723 DPS00007.JPG
405 DPS00008.JPG
207 DPS00009.JPG
272 DPS00010.JPG
196 DPS00011.JPG
139 DPS00012.JPG
84 DPS00013.JPG
62 DPS00014.JPG
165 DPS00015.JPG
495 DPS00016.JPG
189 DPS00017.JPG
218 DPS00018.JPG
617 DPS00019.JPG
529 DPS00020.JPG
459 DPS00021.JPG
322 DPS00022.JPG
182 DPS00023.JPG
71 DPS00024.JPG
1 DPS00025.JPG
3 DPS00026.JPG
8 DPS00027.JPG
10 DPS00028.JPG
6 DPS00029.JPG
2 DPS00030.JPG
2 DPS00031.JPG
16 DPS00032.JPG
11 DPS00033.JPG
36 DPS00034.JPG
41 DPS00035.JPG
28 DPS00036.JPG
10 DPS00037.JPG
3 DPS00038.JPG
15 DPS00039.JPG
8 DPS00040.JPG
11 DPS00041.JPG
9 DPS00042.JPG
3 DPS00043.JPG
5 DPS00044.JPG
12 DPS00045.JPG
7 DPS00046.JPG
27 DPS00047.JPG
51 DPS00048.JPG
48 DPS00049.JPG
46 DPS00050.JPG
69 DPS00051.JPG
145 DPS00052.JPG
252 DPS00053.JPG
170 DPS00054.JPG
121 DPS00055.JPG
99 DPS00056.JPG
80 DPS00057.JPG
95 DPS00058.JPG
184 DPS00059.JPG
215 DPS00060.JPG
202 DPS00061.JPG
138 DPS00062.JPG
99 DPS00063.JPG
88 DPS00064.JPG
88 DPS00065.JPG
63 DPS00066.JPG
137 DPS00067.JPG
65 DPS00068.JPG
99 DPS00069.JPG
95 DPS00070.JPG
107 DPS00071.JPG
141 DPS00072.JPG
134 DPS00073.JPG
110 DPS00074.JPG
98 DPS00075.JPG
165 DPS00076.JPG
373 DPS00077.JPG
590 DPS00078.JPG
573 DPS00079.JPG
893 DPS00080.JPG
871 DPS00081.JPG
780 DPS00082.JPG
731 DPS00083.JPG
1112 DPS00084.JPG
1081 DPS00085.JPG
734 DPS00086.JPG
534 DPS00087.JPG
479 DPS00088.JPG
499 DPS00089.JPG
464 DPS00090.JPG
532 DPS00091.JPG
549 DPS00092.JPG
504 DPS00093.JPG
499 DPS00094.JPG
555 DPS00095.JPG
508 DPS00096.JPG
540 DPS00097.JPG
498 DPS00098.JPG
348 DPS00099.JPG
326 DPS00100.JPG
276 DPS00101.JPG
248 DPS00102.JPG
265 DPS00103.JPG
489 DPS00104.JPG
633 DPS00105.JPG
673 DPS00106.JPG
530 DPS00107.JPG
624 DPS00108.JPG
500 DPS00109.JPG
364 DPS00110.JPG
438 DPS00111.JPG
424 DPS00112.JPG
527 DPS00113.JPG
451 DPS00114.JPG
496 DPS00115.JPG
381 DPS00116.JPG
504 DPS00117.JPG
364 DPS00118.JPG
457 DPS00119.JPG
798 DPS00120.JPG
1213 DPS00001.JPG
1189 DPS00002.JPG
1191 DPS00003.JPG
1189 DPS00004.JPG
1074 DPS00005.JPG
940 DPS00006.JPG
723 DPS00007.JPG
405 DPS00008.JPG
207 DPS00009.JPG
272 DPS00010.JPG
196 DPS00011.JPG
139 DPS00012.JPG
84 DPS00013.JPG
62 DPS00014.JPG
165 DPS00015.JPG
495 DPS00016.JPG
189 DPS00017.JPG
218 DPS00018.JPG
617 DPS00019.JPG
529 DPS00020.JPG
459 DPS00021.JPG
322 DPS00022.JPG
182 DPS00023.JPG
71 DPS00024.JPG
1 DPS00025.JPG
3 DPS00026.JPG
8 DPS00027.JPG
10 DPS00028.JPG
6 DPS00029.JPG
2 DPS00030.JPG
2 DPS00031.JPG
16 DPS00032.JPG
11 DPS00033.JPG
36 DPS00034.JPG
41 DPS00035.JPG
28 DPS00036.JPG
10 DPS00037.JPG
3 DPS00038.JPG
15 DPS00039.JPG
8 DPS00040.JPG
11 DPS00041.JPG
9 DPS00042.JPG
3 DPS00043.JPG
5 DPS00044.JPG
12 DPS00045.JPG
7 DPS00046.JPG
27 DPS00047.JPG
51 DPS00048.JPG
48 DPS00049.JPG
46 DPS00050.JPG
69 DPS00051.JPG
145 DPS00052.JPG
252 DPS00053.JPG
170 DPS00054.JPG
121 DPS00055.JPG
99 DPS00056.JPG
80 DPS00057.JPG
95 DPS00058.JPG
184 DPS00059.JPG
215 DPS00060.JPG
202 DPS00061.JPG
138 DPS00062.JPG
99 DPS00063.JPG
88 DPS00064.JPG
88 DPS00065.JPG
63 DPS00066.JPG
137 DPS00067.JPG
65 DPS00068.JPG
99 DPS00069.JPG
95 DPS00070.JPG
107 DPS00071.JPG
141 DPS00072.JPG
134 DPS00073.JPG
110 DPS00074.JPG
98 DPS00075.JPG
165 DPS00076.JPG
373 DPS00077.JPG
590 DPS00078.JPG
573 DPS00079.JPG
893 DPS00080.JPG
871 DPS00081.JPG
780 DPS00082.JPG
731 DPS00083.JPG
1112 DPS00084.JPG
1081 DPS00085.JPG
734 DPS00086.JPG
534 DPS00087.JPG
479 DPS00088.JPG
499 DPS00089.JPG
464 DPS00090.JPG
532 DPS00091.JPG
549 DPS00092.JPG
504 DPS00093.JPG
499 DPS00094.JPG
555 DPS00095.JPG
508 DPS00096.JPG
540 DPS00097.JPG
498 DPS00098.JPG
348 DPS00099.JPG
326 DPS00100.JPG
276 DPS00101.JPG
248 DPS00102.JPG
265 DPS00103.JPG
489 DPS00104.JPG
633 DPS00105.JPG
673 DPS00106.JPG
530 DPS00107.JPG
624 DPS00108.JPG
500 DPS00109.JPG
364 DPS00110.JPG
438 DPS00111.JPG
424 DPS00112.JPG
527 DPS00113.JPG
451 DPS00114.JPG
496 DPS00115.JPG
381 DPS00116.JPG
504 DPS00117.JPG
364 DPS00118.JPG
457 DPS00119.JPG
798 DPS00120.JPG
